<osm>
  <node id="-4" lat="51.1035219" lon="6.9281212" />
  <node id="-3" lat="51.1056285" lon="6.932373" />
  <node id="68833530" lat="51.1041236" lon="6.9298674" />
  <node id="3819756095" lat="51.1039305" lon="6.9294564" />
  <way id="-2">
    <nd ref="-3" />
    <nd ref="68833530" />
    <nd ref="3819756095" />
    <nd ref="-4" />
    <tag k="highway" v="track" />
    <tag k="lit" v="no" />
    <tag k="motor_vehicle" v="no" />
    <tag k="mx:bp" v="3+1" />
    <tag k="mx:oid" v="9218626" />
    <tag k="surface" v="asphalt" />
  </way>
</osm>