<osm>
  <node id="1480609234" lat="48.9943836" lon="8.4004179" />
  <node id="1480609235" lat="48.9943781" lon="8.4005338" />
  <node id="1480609240" lat="48.9944109" lon="8.4004401" />
  <node id="1480609253" lat="48.9943508" lon="8.4005116" />
  <way id="-2">
    <nd ref="1480609253" />
    <nd ref="1480609234" />
    <nd ref="1480609240" />
    <nd ref="1480609235" />
    <tag k="barrier" v="wall" />
    <tag k="height" v="1" />
    <tag k="mx:oid" v="134707139" />
  </way>
</osm>